…
    interpolated_runoff

    ## 
    ## Hydrostreamer
    ## No. objects: 41
    ## No. runoff timeseries: 1
    ##   Included runoff timeseries: LORA
    ## 
    ## Simple feature collection with 41 features and 3 fields
    ## geometry type:  LINESTRING
    ## dimension:      XY
    ## bbox:           xmin: 107.3325 ymin: 12.2975 xmax: 107.6075 ymax: 12.9975
    ## geographic CRS: WGS 84
    ## # A tibble: 41 x 4
    ##    riverID runoff_ts     SEGMENT_ID                                         geom
    ##      <dbl> <named list>       <dbl>                             <LINESTRING [°]>
    ##  1      56 <tibble [396~         56 (107.4125 12.2975, 107.4075 12.3025, 107.40~
    ##  2      65 <tibble [396~         65 (107.4425 12.3425, 107.4375 12.3475, 107.43~
    ##  3      67 <tibble [396~         67 (107.5475 12.3625, 107.5475 12.3675, 107.54~
    ##  4      69 <tibble [396~         69 (107.3525 12.3675, 107.3575 12.3675, 107.36~
    ##  5      70 <tibble [396~         70 (107.3675 12.3725, 107.3725 12.3775, 107.37~
    ##  6      77 <tibble [396~         77 (107.5175 12.4125, 107.5175 12.4175, 107.51~
    ##  7      79 <tibble [396~         79 (107.5625 12.4275, 107.5575 12.4325, 107.55~
    ##  8      83 <tibble [396~         83 (107.5575 12.4375, 107.5625 12.4425, 107.56~
    ##  9      85 <tibble [396~         85 (107.5925 12.4475, 107.5875 12.4525, 107.58~
    ## 10      88 <tibble [396~         88 (107.4525 12.4575, 107.4475 12.4625, 107.44~
    ## # ... with 31 more rows
…
    ## 
    ## Hydrostreamer
    ## No. objects: 41
    ## No. runoff timeseries: 1
    ##   Included runoff timeseries: LORA
    ## No. discharge timeseries: 1
    ##   Included discharge timeseries: LORA
    ## 
    ## Simple feature collection with 41 features and 7 fields
    ## geometry type:  LINESTRING
    ## dimension:      XY
    ## bbox:           xmin: 107.3325 ymin: 12.2975 xmax: 107.6075 ymax: 12.9975
    ## geographic CRS: WGS 84
    ## # A tibble: 41 x 8
    ##    riverID NEXT  PREVIOUS runoff_ts discharge_ts UP_SEGMENTS SEGMENT_ID
    ##      <dbl> <nam> <named > <named l> <named list>       <dbl>      <dbl>
    ##  1      56 <dbl~ <dbl [1~ <tibble ~ <tibble [39~           0         56
    ##  2      65 <dbl~ <dbl [1~ <tibble ~ <tibble [39~           0         65
    ##  3      67 <dbl~ <dbl [1~ <tibble ~ <tibble [39~           0         67
    ##  4      69 <dbl~ <dbl [1~ <tibble ~ <tibble [39~           0         69
    ##  5      70 <dbl~ <dbl [2~ <tibble ~ <tibble [39~           2         70
    ##  6      77 <dbl~ <dbl [1~ <tibble ~ <tibble [39~           0         77
    ##  7      79 <dbl~ <dbl [1~ <tibble ~ <tibble [39~           0         79
    ##  8      83 <dbl~ <dbl [2~ <tibble ~ <tibble [39~           2         83
    ##  9      85 <dbl~ <dbl [1~ <tibble ~ <tibble [39~           0         85
    ## 10      88 <dbl~ <dbl [1~ <tibble ~ <tibble [39~           0         88
    ## # ... with 31 more rows, and 1 more variable: geom <LINESTRING [°]>
…
