hydrostreamer tutorial • hydrostreamer
…
HSgrid$runoff_ts$`1`
#> # A tsibble: 396 x 2 [1D]
#>    Date              LORA
#>    <date>           <dbl>
#>  1 1980-01-01 0.00000344 
#>  2 1980-02-01 0.00000166 
#>  3 1980-03-01 0.000000993
#>  4 1980-04-01 0.000000874
#>  5 1980-05-01 0.000000815
#>  6 1980-06-01 0.0000279  
#>  7 1980-07-01 0.0000185  
#>  8 1980-08-01 0.0000503  
#>  9 1980-09-01 0.0000815  
#> 10 1980-10-01 0.0000557  
#> # ... with 386 more rows
…
( river_downscaled <- downscale_runoff(river_weights) )
#> 
#> Hydrostreamer
#> No. objects: 41
#> No. runoff inputs: 2
#>   Included runoff timeseries: [1] "LORA"
#> 
#> 
#> Simple feature collection with 41 features and 5 fields
#> geometry type:  LINESTRING
#> dimension:      XY
#> bbox:           xmin: 107.3325 ymin: 12.2975 xmax: 107.6075 ymax: 12.9975
#> epsg (SRID):    4326
#> proj4string:    +proj=longlat +datum=WGS84 +no_defs
#> # A tibble: 41 x 6
#>    riverID  NEXT PREVIOUS  runoff_ts UP_SEGMENTS                       geom
#>      <dbl> <dbl> <list>    <list>          <dbl>          <LINESTRING [Â°]>
#>  1      56    70 <dbl [1]> <tsibble~           1 (107.4125 12.2975, 107.40~
#>  2      65    99 <dbl [1]> <tsibble~           1 (107.4425 12.3425, 107.43~
#>  3      67    83 <dbl [1]> <tsibble~           1 (107.5475 12.3625, 107.54~
#>  4      69    70 <dbl [1]> <tsibble~           1 (107.3525 12.3675, 107.35~
#>  5      70   102 <dbl [2]> <tsibble~           3 (107.3675 12.3725, 107.37~
#>  6      77    89 <dbl [1]> <tsibble~           1 (107.5175 12.4125, 107.51~
#>  7      79    83 <dbl [1]> <tsibble~           1 (107.5625 12.4275, 107.55~
#>  8      83    89 <dbl [2]> <tsibble~           3 (107.5575 12.4375, 107.56~
#>  9      85   109 <dbl [1]> <tsibble~           1 (107.5925 12.4475, 107.58~
#> 10      88    99 <dbl [1]> <tsibble~           1 (107.4525 12.4575, 107.44~
#> # ... with 31 more rows

The downscaled runoff in runoff_ts is a named list column where each element is a tsibble. Like with HSgrid, each element can be accessed by its name - the ID of the river segment.

( runoff200 <- catchment_downscaled$runoff_ts$`200` )
#> # A tsibble: 396 x 2 [1D]
#>    Date           LORA
#>    <date>        <dbl>
#>  1 1980-01-01 0.00310 
#>  2 1980-02-01 0.00150 
#>  3 1980-03-01 0.000894
#>  4 1980-04-01 0.000787
#>  5 1980-05-01 0.000734
#>  6 1980-06-01 0.0251  
#>  7 1980-07-01 0.0166  
#>  8 1980-08-01 0.0453  
#>  9 1980-09-01 0.0733  
#> 10 1980-10-01 0.0502  
#> # ... with 386 more rows
…
